\relax 
\providecommand\hyper@newdestlabel[2]{}
\providecommand\HyperFirstAtBeginDocument{\AtBeginDocument}
\HyperFirstAtBeginDocument{\ifx\hyper@anchor\@undefined
\global\let\oldcontentsline\contentsline
\gdef\contentsline#1#2#3#4{\oldcontentsline{#1}{#2}{#3}}
\global\let\oldnewlabel\newlabel
\gdef\newlabel#1#2{\newlabelxx{#1}#2}
\gdef\newlabelxx#1#2#3#4#5#6{\oldnewlabel{#1}{{#2}{#3}}}
\AtEndDocument{\ifx\hyper@anchor\@undefined
\let\contentsline\oldcontentsline
\let\newlabel\oldnewlabel
\fi}
\fi}
\global\let\hyper@last\relax 
\gdef\HyperFirstAtBeginDocument#1{#1}
\providecommand\HyField@AuxAddToFields[1]{}
\providecommand\HyField@AuxAddToCoFields[2]{}
\@writefile{toc}{\contentsline {section}{\numberline {1}Download}{4}{section.1}}
\@writefile{toc}{\contentsline {section}{\numberline {2}Installation}{5}{section.2}}
\@writefile{toc}{\contentsline {section}{\numberline {3}proto-E2ES\_v1.0}{6}{section.3}}
\@writefile{toc}{\contentsline {subsection}{\numberline {3.1}auxiliary}{6}{subsection.3.1}}
\@writefile{toc}{\contentsline {subsection}{\numberline {3.2}catalog}{8}{subsection.3.2}}
\@writefile{toc}{\contentsline {subsection}{\numberline {3.3}conf}{8}{subsection.3.3}}
\@writefile{toc}{\contentsline {subsection}{\numberline {3.4}doc}{8}{subsection.3.4}}
\@writefile{toc}{\contentsline {subsection}{\numberline {3.5}src}{8}{subsection.3.5}}
\@writefile{toc}{\contentsline {subsection}{\numberline {3.6}files}{9}{subsection.3.6}}
\@writefile{toc}{\contentsline {section}{\numberline {4}Usage}{10}{section.4}}
\newlabel{usage}{{4}{10}{Usage}{section.4}{}}
\@writefile{toc}{\contentsline {subsection}{\numberline {4.1}Overall configuration}{10}{subsection.4.1}}
\newlabel{conffile}{{4.1}{10}{Overall configuration}{subsection.4.1}{}}
\@writefile{lot}{\contentsline {table}{\numberline {1}{\ignorespaces \textbf  {File Names}\relax }}{11}{table.caption.4}}
\providecommand*\caption@xref[2]{\@setref\relax\@undefined{#1}}
\newlabel{FileNames}{{1}{11}{\textbf {File Names}\relax }{table.caption.4}{}}
\@writefile{lot}{\contentsline {table}{\numberline {2}{\ignorespaces \textbf  {Directory Names}\relax }}{11}{table.caption.5}}
\newlabel{DirectoryNames}{{2}{11}{\textbf {Directory Names}\relax }{table.caption.5}{}}
\@writefile{lot}{\contentsline {table}{\numberline {3}{\ignorespaces \textbf  {Simulation Parameters}\relax }}{11}{table.caption.6}}
\newlabel{SimulationParameters}{{3}{11}{\textbf {Simulation Parameters}\relax }{table.caption.6}{}}
\@writefile{lot}{\contentsline {table}{\numberline {4}{\ignorespaces \textbf  {Modules}\relax }}{11}{table.caption.7}}
\newlabel{Modules}{{4}{11}{\textbf {Modules}\relax }{table.caption.7}{}}
\@writefile{toc}{\contentsline {section}{\numberline {5}The script}{12}{section.5}}
\@writefile{lot}{\contentsline {table}{\numberline {5}{\ignorespaces Structure of \textsf  {OperationalTimeline\_lite.csv}.\relax }}{13}{table.caption.8}}
\newlabel{OPT}{{5}{13}{Structure of \textsf {OperationalTimeline\_lite.csv}.\relax }{table.caption.8}{}}
\@writefile{toc}{\contentsline {subsection}{\numberline {5.1}\textsf  {Euclid Survey Strategy Module\nobreakspace  {}(ECSS)}}{13}{subsection.5.1}}
\newlabel{ECSS}{{5.1}{13}{\textsf {Euclid Survey Strategy Module~(ECSS)}}{subsection.5.1}{}}
\@writefile{toc}{\contentsline {subsection}{\numberline {5.2}\textsf  {Simulated Sky Module\nobreakspace  {}(SS)}}{13}{subsection.5.2}}
\newlabel{SS}{{5.2}{13}{\textsf {Simulated Sky Module~(SS)}}{subsection.5.2}{}}
\@writefile{toc}{\contentsline {subsection}{\numberline {5.3}\textsf  {Spacecraft and Environment Module\nobreakspace  {}(SCE)}}{13}{subsection.5.3}}
\newlabel{SCE}{{5.3}{13}{\textsf {Spacecraft and Environment Module~(SCE)}}{subsection.5.3}{}}
\@writefile{toc}{\contentsline {subsection}{\numberline {5.4}\textsf  {Optical Model Module\nobreakspace  {}(OM)}}{14}{subsection.5.4}}
\newlabel{OM}{{5.4}{14}{\textsf {Optical Model Module~(OM)}}{subsection.5.4}{}}
\@writefile{toc}{\contentsline {subsection}{\numberline {5.5}\textsf  {Detection System Module\nobreakspace  {}(DS)}}{14}{subsection.5.5}}
\newlabel{DS}{{5.5}{14}{\textsf {Detection System Module~(DS)}}{subsection.5.5}{}}
\@writefile{toc}{\contentsline {subsection}{\numberline {5.6}\textsf  {On-Board Data Generation Module\nobreakspace  {}(OBDG)}}{15}{subsection.5.6}}
\newlabel{OBDG}{{5.6}{15}{\textsf {On-Board Data Generation Module~(OBDG)}}{subsection.5.6}{}}
\@writefile{toc}{\contentsline {subsection}{\numberline {5.7}\textsf  {Data Processing and Calibration Module\nobreakspace  {}(DPC)}}{15}{subsection.5.7}}
\newlabel{DPC}{{5.7}{15}{\textsf {Data Processing and Calibration Module~(DPC)}}{subsection.5.7}{}}
\@writefile{toc}{\contentsline {subsection}{\numberline {5.8}\textsf  {Performance Assessment Module\nobreakspace  {}(PA)}}{16}{subsection.5.8}}
\newlabel{PA}{{5.8}{16}{\textsf {Performance Assessment Module~(PA)}}{subsection.5.8}{}}
\@writefile{toc}{\contentsline {section}{\numberline {6}The \textsf  {.log} file}{18}{section.6}}
\@writefile{lot}{\contentsline {table}{\numberline {6}{\ignorespaces Scheme of the structure of \textsf  {SimulatorStatus.log}.\relax }}{19}{table.caption.9}}
\newlabel{log}{{6}{19}{Scheme of the structure of \textsf {SimulatorStatus.log}.\relax }{table.caption.9}{}}
\@writefile{toc}{\contentsline {section}{\numberline {7}Dependencies}{20}{section.7}}
\newlabel{dependencies}{{7}{20}{Dependencies}{section.7}{}}
\@writefile{toc}{\contentsline {section}{\numberline {A}TIPS installation}{21}{appendix.A}}
\newlabel{appA}{{A}{21}{TIPS installation}{appendix.A}{}}
\@writefile{toc}{\contentsline {subsection}{\numberline {A.1}Possible issues}{22}{subsection.A.1}}
